{
  "name": {
    "type": "Input",
    "value": "New Notification "
  },
  "status": {
    "type": "Status"
  },
  "schedule": {
    "type": "Range",
    "php": true
  },
  "cookie": {
    "type": "Input",
    "js": true,
    "php": true
  },
  "closeButton": {
    "type": "Toggle",
    "php": true
  },
  "title": {
    "type": "InputLang",
    "php": true
  },
  "text": {
    "type": "InputLang",
    "value": "Notification...",
    "php": true
  },
  "notificationFont": {
    "type": "Font",
    "selector": ".module-notification-%s"
  },
  "linkFont": {
    "type": "Font",
    "selector": ".module-notification-%s a"
  },
  "linkFontHover": {
    "type": "Font",
    "selector": ".module-notification-%s a:hover"
  },

  "notificationWidth": {
    "type": "InputNumber",
    "rules": {
      "@": {
        ".module-notification-%s.notification": "max-width:%spx"
      }
    }
  },
  "notificationPadding": {
    "type": "Padding",
    "selector": ".module-notification-%s",
    "value": {
      "padding": "10"
    }
  },
  "notificationBG": {
    "type": "Background",
    "selector": ".module-notification-%s"
  },
  "notificationBorder": {
    "type": "Border",
    "selector": ".module-notification-%s"
  },
  "notificationBorderRadius": {
    "type": "BorderRadius",
    "selector": ".module-notification-%s"
  },
  "notificationShadow": {
    "type": "Shadow",
    "selector": ".module-notification-%s"
  },
  "notificationCloseStatus": {
    "type": "Toggle",
    "value": "true",
    "rules": {
      "true": {
        ".module-notification-%s .notification-close": "display: block"
      },
      "false": {
        ".module-notification-%s .notification-close": "display: none"
      }
    }
  },
  "notificationCloseIcon": {
    "type": "Icon",
    "selector": ".module-notification-%s .notification-close::before",
    "value": {
      "icon": {
        "name": "close2",
        "code": "e5cd"
      }
    }
  },
  "notificationCloseIconHover": {
    "type": "Color",
    "selector": ".module-notification-%s .notification-close:hover::before",
    "property": "color"
  },
  "notificationCloseSize": {
    "type": "InputPair",
    "selector": ".module-notification-%s .notification-close",
    "properties": {
      "first": "min-width:%spx",
      "second": "min-height:%spx",
      "value": {
        "first": "25",
        "second": "25"
      }
    }
  },
  "notificationCloseOffset": {
    "type": "InputPair",
    "selector": ".module-notification-%s .notification-close",
    "properties": {
      "first": "margin-right:%spx",
      "second": "margin-top:%spx"
    },
    "rtlProperties": {
      "first": "margin-left:%spx",
      "second": "margin-top:%spx"
    }
  },
  "notificationCloseStyle": {
    "type": "Variable",
    "variable": "button",
    "selector_prefix": ".module-notification-%s .notification-close&"
  }
}
