{
  "SplitRatio": {
    "type": "Select",
    "value": "50",
    "rules": {
      "25": {
        ".product-info .product-left": "width:%s%",
        ".product-info .product-right": "width:calc(100% - %s%)"
      },
      "33": {
        ".product-info .product-left": "width:%s.3333%",
        ".product-info .product-right": "width:calc(100% - %s.3333%)"
      },
      "40": {
        ".product-info .product-left": "width:%s%",
        ".product-info .product-right": "width:calc(100% - %s%)"
      },
      "45": {
        ".product-info .product-left": "width:%s%",
        ".product-info .product-right": "width:calc(100% - %s%)"
      },
      "50": {
        ".product-info .product-left": "width:%s%",
        ".product-info .product-right": "width:calc(100% - %s%)"
      },
      "55": {
        ".product-info .product-left": "width:%s%",
        ".product-info .product-right": "width:calc(100% - %s%)"
      },
      "60": {
        ".product-info .product-left": "width:%s%",
        ".product-info .product-right": "width:calc(100% - %s%)"
      },
      "66": {
        ".product-info .product-left": "width:%s.6666%",
        ".product-info .product-right": "width:calc(100% - %s.6666%)"
      },
      "75": {
        ".product-info .product-left": "width:%s%",
        ".product-info .product-right": "width:calc(100% - %s%)"
      },
      "100": {
        ".product-info .product-left": "width:%s%",
        ".product-info .product-right": "width:%s%"
      }
    }
  },
  "SplitSpacing": {
    "type": "InputNumber",
    "rules": {
      "@": {
        ".product-info .product-right": "padding-left:%spx"
      }
    },
    "rtlRules": {
      "@": {
        ".product-info .product-right": "padding-right:%spx"
      }
    }
  },
  "LeftBoxStyles": {
    "include": "common",
    "selector_prefix": ".product-info .product-left"
  },
  "RightBoxStyles": {
    "include": "common",
    "selector_prefix": ".product-info .product-right .product-details"
  },
  "TitlePosition": {
    "type": "Radio",
    "value": "top",
    "rules": {
      "top": {
        ".route-product-product h1.title": "display:block",
        ".route-product-product h2.title": "display:none"
      },
      "options": {
        ".route-product-product h1.title": "display:none",
        ".route-product-product h2.title": "display:block"
      }
    }
  },
  "Title": {
    "type": "Variable",
    "variable": "title",
    "selector_prefix": ".route-product-product #content .page-title"
  },
  "ImageBorder": {
    "type": "Border",
    "selector": ".product-image .main-image"
  },
  "ImageBorderRadius": {
    "type": "BorderRadius",
    "selector": ".product-image .main-image"
  },
  "ImageShadow": {
    "type": "Shadow",
    "selector": ".product-image .main-image"
  },
  "CloudZoomStatus": {
    "type": "Toggle",
    "js": true
  },
  "CloudZoomPosition": {
    "type": "Radio",
    "value": "inner",
    "js": true
  },
  "Gallery": {
    "type": "Variable",
    "variable": "gallery",
    "selector_prefix": ".lg-product-images"
  },
  "AdditionalImagesStatus": {
    "type": "Status",
    "php": true
  },
  "AdditionalImagesPosition": {
    "type": "Radio",
    "value": "bottom",
    "php": true
  },
  "AdditionalImagesItemsPerRow": {
    "type": "InputNumber",
    "value": "4",
    "rules": {
      "@": {
        ".direction-horizontal .additional-image": "width: calc(100% / %s)"
      }
    },
    "php": true
  },
  "AdditionalImagesCarousel": {
    "type": "Toggle",
    "php": true,
    "js": true
  },
  "AdditionalImagesCarouselStyle": {
    "type": "Variable",
    "variable": "carousel",
    "selector_prefix": ".additional-images"
  },
  "AdditionalImagesSpacing": {
    "type": "InputNumber",
    "value": "10",
    "rules": {
      "@": {
        ".additional-image": "padding:calc(%spx / 2)"
      }
    }
  },
  "AdditionalImagesHeightAdjustment": {
    "type": "InputNumber",
    "js": true
  },
  "AdditionalImagesBG": {
    "type": "Background",
    "selector": ".additional-images"
  },
  "AdditionalImagesGutter": {
    "type": "Margin",
    "selector": ".additional-images",
    "php": true
  },
  "AdditionalPadding": {
    "type": "Padding",
    "selector": ".additional-images",
    "php": true
  },
  "AdditionalImagesContainerBorder": {
    "type": "Border",
    "selector": ".additional-images",
    "php": true
  },
  "AdditionalImagesBorder": {
    "type": "Border",
    "selector": ".additional-images img",
    "php": true
  },
  "AdditionalImagesBorderHover": {
    "type": "Color",
    "property": "border-color",
    "selector": ".additional-images img:hover"
  },
  "AdditionalImagesBorderRadius": {
    "type": "BorderRadius",
    "selector": ".additional-images img"
  },
  "AdditionalImagesShadow": {
    "type": "Shadow",
    "selector": ".additional-images img"
  },
  "AdditionalImagesShadowHover": {
    "type": "Shadow",
    "selector": ".additional-images img:hover"
  },
  "DetailsFont": {
    "type": "Font",
    "selector": ".product-info .product-details > div"
  },
  "DetailsBoxStyles": {
    "include": "common",
    "selector_prefix": ".product-info .product-details > div"
  },
  "Stats": {
    "type": "Toggle",
    "php": true
  },
  "StatsBoxStyles": {
    "include": "common",
    "selector_prefix": ".product-info .product-details .product-stats"
  },
  "StatsSortOrder": {
    "type": "InputNumber",
    "selector": ".product-info .product-details .product-stats",
    "property": "order:%s"
  },
  "StatsLabelFont": {
    "type": "Font",
    "selector": ".product-info .product-stats b"
  },
  "StatsValueFont": {
    "type": "Font",
    "selector": ".product-info .product-stats span"
  },
  "BrandImageBox": {
    "include": "common",
    "selector_prefix": ".product-info .product-details .brand-image a"
  },
  "StatsIcon": {
    "type": "Icon",
    "selector": ".product-info .product-stats li::before",
    "value": {
      "icon": {
        "name": "circle",
        "code": "f111",
        "size": "10"
      }
    }
  },
  "StatsMaxHeight": {
    "type": "InputNumber",
    "selector": ".product-info .product-stats ul",
    "property": "max-height:%spx"
  },
  "ProductManufacturerDisplay": {
    "type": "Radio",
    "value": "list",
    "php": true,
    "rules": {
      "list": {
        ".product-info .product-stats ul": "width:100%"
      }
    }
  },
  "BrandNameLink": {
    "type": "Font",
    "selector": ".product-info .product-manufacturer a"
  },
  "BrandNameLinkHover": {
    "type": "Font",
    "selector": ".product-info .product-manufacturer a:hover"
  },
  "ProductManufacturer": {
    "type": "Toggle",
    "value": "true",
    "php": true
  },
  "ProductModel": {
    "type": "Toggle",
    "value": "false",
    "php": true
  },
  "ProductSKU": {
    "type": "Toggle",
    "value": "false",
    "php": true
  },
  "ProductUPC": {
    "type": "Toggle",
    "value": "false",
    "php": true
  },
  "ProductJAN": {
    "type": "Toggle",
    "value": "false",
    "php": true
  },
  "ProductISBN": {
    "type": "Toggle",
    "value": "false",
    "php": true
  },
  "ProductMPN": {
    "type": "Toggle",
    "value": "false",
    "php": true
  },
  "ProductWeight": {
    "type": "Toggle",
    "value": "false",
    "php": true
  },
  "ProductDimension": {
    "type": "Toggle",
    "value": "false",
    "php": true
  },
  "ProductReward": {
    "type": "Toggle",
    "value": "true",
    "php": true
  },
  "ProductStock": {
    "type": "Toggle",
    "value": "true",
    "php": true
  },
  "InStockFont": {
    "type": "Font",
    "selector": ".product-info .in-stock span"
  },
  "OutStockFont": {
    "type": "Font",
    "selector": ".product-info .out-of-stock span"
  },
  "CustomStats": {
    "type": "Toggle",
    "value": "false",
    "php": true
  },
  "ProductViews": {
    "type": "Toggle",
    "php": true
  },
  "ViewsText": {
    "type": "InputLang",
    "php": true,
    "value": "Product Views:"
  },
  "ViewsIcon": {
    "type": "Icon",
    "selector": ".product-stats .product-views::before",
    "value": {
      "icon": {
        "name": "eye",
        "code": "f06e"
      }
    }
  },
  "ProductSold": {
    "type": "Toggle",
    "php": true
  },
  "SoldText": {
    "type": "InputLang",
    "php": true,
    "value": "Products Sold:"
  },
  "SoldIcon": {
    "type": "Icon",
    "selector": ".product-stats .product-sold::before",
    "value": {
      "icon": {
        "name": "monetization_on",
        "code": "e263"
      }
    }
  },
  "SoldLabelFont": {
    "type": "Font",
    "selector": ".product-info .product-stats .product-sold b"
  },
  "SoldValueFont": {
    "type": "Font",
    "selector": ".product-info .product-stats .product-sold span"
  },
  "SoldViewBoxStyles": {
    "include": "common",
    "selector_prefix": ".product-info .product-details .custom-stats"
  },
  "ViewsLabelFont": {
    "type": "Font",
    "selector": ".product-info .product-stats .product-views b"
  },
  "ViewsValueFont": {
    "type": "Font",
    "selector": ".product-info .product-stats .product-views span"
  },
  "StatsAlign": {
    "type": "Radio",
    "value": "apart",
    "rules": {
      "left": {
        ".product-info .custom-stats": "justify-content:flex-start"
      },
      "center": {
        ".product-info .custom-stats": "justify-content:center"
      },
      "right": {
        ".product-info .custom-stats": "justify-content:flex-end"
      },
      "apart": {
        ".product-info .custom-stats": "justify-content:space-between"
      }
    }
  },
  "RatingAlign": {
    "type": "Radio",
    "value": "left",
    "rules": {
      "left": {
        ".product-info .product-details .rating-page": "justify-content:flex-start"
      },
      "center": {
        ".product-info .product-details .rating-page": "justify-content:center"
      },
      "right": {
        ".product-info .product-details .rating-page": "justify-content:flex-end"
      }
    }
  },
  "RatingSortOrder": {
    "type": "InputNumber",
    "selector": ".product-info .product-details .rating-page",
    "property": "order:%s"
  },
  "RatingFont": {
    "type": "Font",
    "selector": ".product-info .product-details .rating-page div a, .product-info .product-details .rating-page div b"
  },
  "RatingFontHover": {
    "type": "Font",
    "selector": ".product-info .product-details .rating-page div a:hover"
  },
  "RatingSeparator": {
    "type": "Input",
    "selector": ".product-info .product-details .rating-page b",
    "value": "-",
    "php": true
  },
  "RatingPadding": {
    "type": "Padding",
    "selector": ".product-info .product-details .review-links"
  },
  "RatingStars": {
    "type": "Variable",
    "variable": "stars",
    "selector_prefix": ".product-info .product-details"
  },
  "RatingBoxStyles": {
    "include": "common",
    "selector_prefix": ".product-info .product-details .rating-page"
  },
  "CountdownVisibility": {
    "type": "Toggle",
    "value": "true",
    "rules": {
      "true": {
        ".product-info .product-details .countdown-wrapper": "display: block"
      },
      "false": {
        ".product-info .product-details .countdown-wrapper": "display: none"
      }
    }
  },
  "CountdownText": {
    "type": "InputLang",
    "value": "This offer ends in:",
    "php": true
  },
  "CountdownBoxStyles": {
    "include": "common",
    "selector_prefix": ".product-info .product-details .countdown-wrapper"
  },
  "CountdownTextBoxStyles": {
    "include": "common",
    "selector_prefix": ".product-info .product-details .countdown-title"
  },
  "CountdownTitle": {
    "type": "Variable",
    "variable": "title",
    "selector_prefix": ".product-info .product-details .countdown-title"
  },
  "Countdown": {
    "type": "Variable",
    "variable": "countdown",
    "selector_prefix": ".product-info .product-details"
  },
  "CountdownOrder": {
    "type": "InputNumber",
    "selector": ".product-info .product-details .countdown-wrapper",
    "property": "order:%s"
  },
  "PriceSortOrder": {
    "type": "InputNumber",
    "selector": ".product-info .product-details .product-price-group",
    "property": "order:%s"
  },
  "PriceAlign": {
    "type": "Radio",
    "value": "left",
    "rules": {
      "left": {
        ".product-info .product-details .product-price-group": "text-align:left",
        ".product-info .product-details .price-group": "justify-content:flex-start"
      },
      "center": {
        ".product-info .product-details .product-price-group": "text-align:center",
        ".product-info .product-details .price-group": "justify-content:center"
      },
      "right": {
        ".product-info .product-details .product-price-group": "text-align:right",
        ".product-info .product-details .price-group": "justify-content:flex-end"
      }
    }
  },
  "PriceBoxStyles": {
    "include": "common",
    "selector_prefix": ".product-info .product-details .product-price-group"
  },
  "PriceFont": {
    "type": "Font",
    "selector": ".product-info .product-details .price-group"
  },
  "NewPriceFont": {
    "type": "Font",
    "selector": ".product-info .product-details .price-group .product-price-new"
  },
  "PriceUpdate": {
    "type": "Toggle",
    "js": true
  },
  "PriceNewBoxStyles": {
    "include": "common",
    "selector_prefix": ".product-info .product-details .product-price"
  },
  "PriceGroupBoxStyles": {
    "include": "common",
    "selector_prefix": ".product-info .product-details .price-group"
  },
  "OldPriceDisplay": {
    "type": "Radio",
    "value": "left",
    "rules": {
      "top": {
        ".product-info .product-details .price-group": "flex-direction:column; align-items:flex-start",
        ".product-info .product-details .product-price": "order:2"
      },
      "left": {
        ".product-info .product-details .price-group": "flex-direction:row; align-items:center",
        ".product-info .product-details .product-price": "order:2"
      },
      "right": {
        ".product-info .product-details .price-group": "flex-direction:row; align-items:center",
        ".product-info .product-details .product-price": "order:-1"
      }
    }
  },
  "OldPriceFont": {
    "type": "Font",
    "selector": ".product-info .product-details .price-group .product-price-old"
  },
  "PriceOldBoxStyles": {
    "include": "common",
    "selector_prefix": ".product-info .product-details .product-price-old"
  },
  "RewardsFont": {
    "type": "Font",
    "selector": ".product-info .product-details .product-points"
  },
  "RewardsVisibility": {
    "type": "Toggle",
    "value": "true",
    "rules": {
      "true": {
        ".product-info .product-details .product-points": "display:block"
      },
      "false": {
        ".product-info .product-details .product-points": "display: none"
      }
    }
  },
  "RewardsBox": {
    "include": "common",
    "selector_prefix": ".product-info .product-details .product-points"
  },
  "TaxVisibility": {
    "type": "Toggle",
    "value": "true",
    "rules": {
      "true": {
        ".product-info .product-details .product-tax": "display:block"
      },
      "false": {
        ".product-info .product-details .product-tax": "display: none"
      }
    }
  },
  "TaxFont": {
    "type": "Font",
    "selector": ".product-info .product-details .product-tax"
  },
  "TaxBox": {
    "include": "common",
    "selector_prefix": ".product-info .product-details .product-tax"
  },
  "DiscountVisibility": {
    "type": "Toggle",
    "value": "true",
    "rules": {
      "true": {
        ".product-info .product-details .discounts": "display:block"
      },
      "false": {
        ".product-info .product-details .discounts": "display: none"
      }
    }
  },
  "DiscountFont": {
    "type": "Font",
    "selector": ".product-info .product-details .product-discount"
  },
  "DiscountsBox": {
    "include": "common",
    "selector_prefix": ".product-info .product-details .discounts"
  },
  "OptionsBoxStyles": {
    "include": "common",
    "selector_prefix": ".product-info .product-details .product-options"
  },
  "OptionsSortOrder": {
    "type": "InputNumber",
    "selector": ".product-info .product-details .product-options",
    "property": "order:%s"
  },
  "OptionsTitleVisibility": {
    "type": "Toggle",
    "value": "false",
    "rules": {
      "true": {
        ".product-info .product-details .product-options > .options-title": "display: block"
      },
      "false": {
        ".product-info .product-details .product-options > .options-title": "display: none"
      }
    }
  },
  "OptionsTitleRecurringVisibility": {
    "type": "Toggle",
    "value": "true",
    "rules": {
      "true": {
        ".product-info .product-details .product-options > h3": "display: block"
      },
      "false": {
        ".product-info .product-details .product-options > h3": "display: none"
      }
    }
  },
  "OptionsTitle": {
    "type": "Variable",
    "variable": "title",
    "selector_prefix": ".product-info .product-details .product-options > h3"
  },
  "OptionsFormStyle": {
    "type": "Variable",
    "variable": "form",
    "selector_prefix": ".product-options"
  },
  "OptionsSelect": {
    "type": "Radio",
    "value": "all",
    "js": true
  },
  "OptionsPushRadio": {
    "type": "Toggle",
    "value": "false",
    "php": true
  },
  "OptionsPushCheckbox": {
    "type": "Toggle",
    "value": "false",
    "php": true
  },
  "PushOptionsFont": {
    "type": "Font",
    "selector": ".product-info .product-options .push-option > div .option-value"
  },
  "PushOptionsSpacing": {
    "type": "Input",
    "rules": {
      "@": {
        ".product-info .product-options .push-option > div .option-value": "margin-right:%spx; margin-bottom:%spx"
      }
    },
    "rtlRules": {
      "@": {
        ".product-info .product-options .push-option > div .option-value": "margin-left:%spx; margin-bottom:%spx"
      }
    }
  },
  "PushImageSpacing": {
    "type": "Input",
    "rules": {
      "@": {
        ".product-info .product-options .push-option > div img": "margin-right:%spx; margin-bottom:%spx"
      }
    },
    "rtlRules": {
      "@": {
        ".product-info .product-options .push-option > div img": "margin-left:%spx; margin-bottom:%spx"
      }
    }
  },
  "PushOptionsSize": {
    "type": "InputPair",
    "selector": ".product-info .product-options .push-option > div .option-value",
    "properties": {
      "first": "min-width:%spx",
      "second": "min-height:%spx"
    }
  },
  "PushOptionsFontHover": {
    "type": "Font",
    "selector": ".product-info .product-options .push-option > div .option-value:hover, .product-info .product-options .push-option > div input:checked + .option-value"
  },
  "PushOptionsFontActive": {
    "type": "Font",
    "selector": ".product-info .product-options .push-option > div input:checked + .option-value"
  },
  "PushOptionsBackground": {
    "type": "Background",
    "selector": ".product-info .product-options .push-option > div .option-value"
  },
  "PushOptionsBackgroundHover": {
    "type": "Background",
    "selector": ".product-info .product-options .push-option > div .option-value:hover, .product-info .product-options .push-option > div input:checked + .option-value"
  },
  "PushOptionsBackgroundActive": {
    "type": "Background",
    "selector": ".product-info .product-options .push-option > div input:checked + .option-value"
  },
  "PushOptionsBorder": {
    "type": "Border",
    "selector": ".product-info .product-options .push-option > div .option-value"
  },
  "PushOptionsBorderHover": {
    "type": "Color",
    "selector": ".product-info .product-options .push-option > div .option-value:hover, .product-info .product-options .push-option > div input:checked + .option-value",
    "property": "border-color"
  },
  "PushOptionsBorderActive": {
    "type": "Color",
    "selector": ".product-info .product-options .push-option > div input:checked + .option-value",
    "property": "border-color"
  },
  "PushOptionsShadow": {
    "type": "Shadow",
    "selector": ".product-info .product-options .push-option > div .option-value"
  },
  "PushOptionsShadowHover": {
    "type": "Shadow",
    "selector": ".product-info .product-options .push-option > div .option-value:hover, .product-info .product-options .push-option > div input:checked + .option-value"
  },
  "PushOptionsShadowActive": {
    "type": "Shadow",
    "selector": ".product-info .product-options .push-option > div input:checked + .option-value"
  },
  "PushOptionsBorderRadius": {
    "type": "BorderRadius",
    "selector": ".product-info .product-options .push-option > div .option-value"
  },
  "PushImageBorder": {
    "type": "Border",
    "selector": ".product-info .product-options .push-option > div img"
  },
  "PushImageBorderHover": {
    "type": "Color",
    "selector": ".product-info .product-options .push-option > div img:hover, .product-info .product-options .push-option > div input:checked + img",
    "property": "border-color"
  },
  "PushImageBorderActive": {
    "type": "Color",
    "selector": ".product-info .product-options .push-option > div input:checked + img",
    "property": "border-color"
  },
  "PushImageShadow": {
    "type": "Shadow",
    "selector": ".product-info .product-options .push-option > div img"
  },
  "PushImageShadowHover": {
    "type": "Shadow",
    "selector": ".product-info .product-options .push-option > div img:hover"
  },
  "PushImageShadowActive": {
    "type": "Shadow",
    "selector": ".product-info .product-options .push-option > div input:checked + img",
    "value": {
      "offsetX": "0",
      "offsetY": "0",
      "blur": "8",
      "color": "rgba(0,0,0,.7)",
      "inner": "true"
    }
  },
  "PushImageBorderRadius": {
    "type": "BorderRadius",
    "selector": ".product-info .product-options .push-option > div img"
  },
  "PushTooltipPosition": {
    "type": "Radio",
    "value": "top",
    "php": true
  },
  "PushTooltip": {
    "type": "Variable",
    "variable": "tooltip",
    "selector_prefix": ".push-tooltip"
  },

  "ButtonsDisplay": {
    "type": "Radio",
    "value": "normal",
    "rules": {
      "normal": {
        ".route-product-product:not(.popup) .product-info .product-details .button-group-page": "position: relative; width:auto; z-index: 1;"
      },
      "fixed": {
        ".route-product-product:not(.popup) .product-info .product-details .button-group-page": "position: fixed; width:100%; z-index: 10000; margin:0"
      }
    }
  },
  "BodyPadding": {
    "type": "InputNumber",
    "rules":{
      "@":{
        ".route-product-product:not(.popup) body": "padding-bottom: %spx",
        ".route-product-product .scroll-top": "bottom: calc(%spx + 10px)",
        ".route-product-product.has-bottom-menu .scroll-top": "bottom: calc(%spx + 50px)"
      }
    }
  },

  "ButtonsMaxWidth": {
    "type": "InputNumber",
    "rules":{
      "@":{
        ".route-product-product:not(.popup) .product-info .product-details .buttons-wrapper": "max-width: %spx"
      }
    }
  },

  "ButtonsBoxStyles": {
    "include": "common",
    "selector_prefix": ".route-product-product:not(.popup) .product-info .product-details .button-group-page"
  },
  "ButtonsSortOrder": {
    "type": "InputNumber",
    "selector": ".product-info .product-details .button-group-page",
    "property": "order:%s"
  },
  "QtySelectorVisibility": {
    "type": "Toggle",
    "value": "true",
    "rules": {
      "true": {
        ".product-info .button-group-page .stepper": "display: flex"
      },
      "false": {
        ".product-info .button-group-page .stepper": "display: none"
      }
    }
  },
  "QtySelector": {
    "type": "Variable",
    "variable": "stepper",
    "selector_prefix": ".product-info .button-group-page"
  },
  "QtyHeight": {
    "type": "InputNumber",
    "rules": {
      "@": {
        ".product-info .button-group-page .stepper": "height:%spx"
      }
    }
  },
  "QtyMargin": {
    "type": "Margin",
    "selector": ".product-info .button-group-page .stepper"
  },
  "CartVisibility": {
    "type": "Toggle",
    "value": "true",
    "rules": {
      "true": {
        ".product-info .button-group-page .btn-cart": "display:inline-flex"
      },
      "false": {
        ".product-info .button-group-page .btn-cart": "display:none"
      }
    }
  },
  "CartDisplay": {
    "type": "Radio",
    "value": "text",
    "rules": {
      "icon": {
        ".route-product-product:not(.popup) .product-info .button-group-page .btn-cart .btn-text": "display:none"
      },
      "text": {
        ".route-product-product:not(.popup) .product-info .button-group-page .btn-cart::before": "display:none",
        ".route-product-product:not(.popup) .product-info .button-group-page .btn-cart .btn-text": "display:inline-block; padding:0;"
      },
      "both": {
        ".route-product-product:not(.popup) .product-info .button-group-page .btn-cart::before, .route-product-product:not(.popup) .product-info .button-group-page .btn-cart .btn-text": "display:inline-block"
      }
    },
    "php": true
  },
  "CartWidth": {
    "type": "Radio",
    "value": "auto",
    "rules": {
      "full": {
        ".route-product-product:not(.popup) .product-info .button-group-page .btn-cart": "flex-grow:10"
      },
      "auto": {
        ".route-product-product:not(.popup) .product-info .button-group-page .btn-cart": "flex-grow:0"
      }
    }
  },
  "CartMargin": {
    "type": "Margin",
    "selector": ".product-info .button-group-page .btn-cart"
  },
  "CartIcon": {
    "type": "Icon",
    "selector": ".product-info .button-group-page .btn-cart::before",
    "value": {
      "icon": {
        "name": "iconmonstr-shopping-cart-6",
        "code": "ea9b"
      }
    }
  },
  "CartIconHover": {
    "type": "Color",
    "property": "color:%s",
    "selector": ".desktop .product-info .button-group-page .btn-cart:hover::before"
  },
  "CartButton": {
    "type": "Variable",
    "variable": "button",
    "selector_prefix": ".product-info .button-group-page .btn-cart&"
  },
  "CartTooltipPosition": {
    "type": "Radio",
    "value": "top",
    "php": true
  },
  "CartTooltip": {
    "include": "tooltip",
    "selector_prefix": ".pp-cart-tooltip"
  },
  "CartTooltipStatus": {
    "type": "Toggle",
    "php": true
  },
  "ExtraButton": {
    "type": "Variable",
    "variable": "button",
    "selector_prefix": ".product-info .button-group-page .btn-extra&"
  },
  "ExtraButton2": {
    "type": "Variable",
    "variable": "button",
    "selector_prefix": ".product-info .button-group-page .btn-extra + .btn-extra&"
  },
  "ExtraVisibility": {
    "type": "Toggle",
    "rules": {
      "true": {
        ".product-info .button-group-page .btn-extra": "display:inline-flex"
      },
      "false": {
        ".product-info .button-group-page .btn-extra": "display:none"
      }
    }
  },

  "Extra1Visibility": {
    "type": "Toggle",
    "value": "",
    "rules": {
      "true": {
        ".product-info .button-group-page .btn-extra:first-child": "display:inline-flex"
      },
      "false": {
        ".product-info .button-group-page .btn-extra:first-child": "display:none"
      }
    }
  },

  "Extra2Visibility": {
    "type": "Toggle",
    "value": "",
    "rules": {
      "true": {
        ".product-info .button-group-page .btn-extra + .btn": "display:inline-flex"
      },
      "false": {
        ".product-info .button-group-page .btn-extra + .btn": "display:none"
      }
    }
  },

  "Extra1ButtonDisplay": {
    "type": "Radio",
    "value": "",
    "rules": {
      "icon": {
        ".product-info .button-group-page .extra-group .btn:first-child .btn-text": "display:none",
        ".product-info .button-group-page .extra-group .btn:first-child::before": "display:inline-block"
      },
      "text": {
        ".product-info .button-group-page .extra-group .btn:first-child::before": "display:none",
        ".product-info .button-group-page .extra-group .btn:first-child .btn-text": "display:inline-block; padding:0;"
      },
      "both": {
        ".product-info .button-group-page .extra-group .btn:first-child::before": "display:inline-block",
        ".product-info .button-group-page .extra-group .btn:first-child .btn-text": "display:inline-block; padding:0 .4em"
      }
    },
    "php": true
  },
  "Extra2ButtonDisplay": {
    "type": "Radio",
    "value": "",
    "rules": {
      "icon": {
        ".product-info .button-group-page .btn-extra + .btn .btn-text": "display:none",
        ".product-info .button-group-page .btn-extra + .btn::before": "display:inline-block"
      },
      "text": {
        ".product-info .button-group-page .btn-extra + .btn::before": "display:none",
        ".product-info .button-group-page .btn-extra + .btn .btn-text": "display:inline-block; padding:0;"
      },
      "both": {
        ".product-info .button-group-page .btn-extra + .btn::before": "display:inline-block",
        ".product-info .button-group-page .btn-extra + .btn .btn-text": "display:inline-block; padding:0 .4em"
      }
    },
    "php": true
  },


  "ExtraDisplay": {
    "type": "Radio",
    "value": "icon",
    "rules": {
      "icon": {
        ".product-info .button-group-page .btn-extra .btn-text": "display:none"
      },
      "text": {
        ".product-info .button-group-page .btn-extra::before": "display:none",
        ".product-info .button-group-page .btn-extra .btn-text": "display:inline-block; padding:0;"
      },
      "both": {
        ".product-info .button-group-page .btn-extra::before, .product-info .button-group-page .btn-extra .btn-text": "display:inline-block"
      }
    },
    "php": true
  },
  "ExtraWidth": {
    "type": "Radio",
    "value": "full",
    "rules": {
      "full": {
        ".product-info .button-group-page .btn-extra": "flex-grow:1"
      },
      "auto": {
        ".product-info .button-group-page .btn-extra": "flex-grow:0"
      }
    }
  },
  "ExtraMargin1": {
    "type": "Margin",
    "selector": ".product-info .button-group-page .extra-group .btn-extra:first-child"
  },
  "ExtraMargin2": {
    "type": "Margin",
    "selector": ".product-info .button-group-page .extra-group .btn-extra + .btn-extra"
  },
  "ExtraButtonIcon1": {
    "type": "Icon",
    "selector": ".product-info .button-group-page .extra-group .btn-extra:first-child::before"
  },
  "ExtraButtonIconHover1": {
    "type": "Icon",
    "selector": ".product-info .button-group-page .extra-group .btn-extra:first-child:hover::before",
    "property": "color"
  },
  "ExtraButtonIcon2": {
    "type": "Icon",
    "selector": ".product-info .button-group-page .extra-group .btn-extra:last-child::before"
  },
  "ExtraButtonIconHover2": {
    "type": "Color",
    "selector": ".product-info .button-group-page .extra-group .btn-extra:last-child:hover::before",
    "property": "color"
  },
  "ExtraMargin": {
    "type": "Margin",
    "selector": ".product-info .button-group-page .extra-group"
  },
  "ExtraIcon": {
    "type": "Icon",
    "selector": ".product-info .button-group-page .btn-extra::before"
  },
  "ExtraIconHover": {
    "type": "Color",
    "property": "color:%s",
    "selector": ".desktop .product-info .button-group-page .btn-extra:hover::before"
  },
  "ExtraButton": {
    "type": "Variable",
    "variable": "button",
    "selector_prefix": ".product-info .button-group-page .btn-extra&"
  },
  "ExtraTooltipStatus": {
    "type": "Toggle",
    "php": true
  },
  "ExtraTooltipPosition": {
    "type": "Radio",
    "value": "top",
    "php": true
  },
  "ExtraTooltip": {
    "include": "tooltip",
    "selector_prefix": ".pp-cart-tooltip"
  },


  "WishButtonsBG": {
    "type": "Background",
    "selector": ".product-info .product-details .button-group-page .wishlist-compare"
  },
  "WishButtonsBorder": {
    "type": "Border",
    "selector": ".product-info .product-details .button-group-page .wishlist-compare"
  },
  "WishButtonsBorderRadius": {
    "type": "BorderRadius",
    "selector": ".product-info .product-details .button-group-page .wishlist-compare"
  },
  "WishButtonsWidth": {
    "type": "Radio",
    "value": "auto",
    "rules": {
      "full": {
        ".product-info .product-details .button-group-page .wishlist-compare": "width:100%",
        ".product-info .button-group-page .wishlist-compare .btn": "flex:1"
      },
      "auto": {
        ".product-info .product-details .button-group-page .wishlist-compare": "width:auto",
        ".product-info .button-group-page .wishlist-compare .btn": "flex:0 0 auto"
      }
    }
  },
  "WishButtonsPadding": {
    "type": "Padding",
    "selector": ".product-info .product-details .button-group-page .wishlist-compare"
  },
  "WishButtonsMargin": {
    "type": "Margin",
    "selector": ".product-info .product-details .button-group-page .wishlist-compare"
  },
  "WishAlign": {
    "type": "Radio",
    "value": "center",
    "rules": {
      "left": {
        ".product-info .button-group-page .wishlist-compare": "margin-left:0; margin-right:auto"
      },
      "center": {
        ".product-info .button-group-page .wishlist-compare": "margin-left:auto; margin-right:auto"
      },
      "right": {
        ".product-info .button-group-page .wishlist-compare": "margin-left:auto; margin-right:0"
      }
    },
    "rtlRules": {
      "left": {
        ".product-info .button-group-page .wishlist-compare": "margin-left:auto; margin-right:0"
      },
      "center": {
        ".product-info .button-group-page .wishlist-compare": "margin-left:auto; margin-right:auto"
      },
      "right": {
        ".product-info .button-group-page .wishlist-compare": "margin-left:0; margin-right:auto"
      }
    }
  },
  "WishlistVisibility": {
    "type": "Toggle",
    "value": "true",
    "rules": {
      "true": {
        ".product-info .button-group-page .btn-wishlist": "display:inline-flex"
      },
      "false": {
        ".product-info .button-group-page .btn-wishlist": "display:none"
      }
    }
  },
  "WishlistDisplay": {
    "type": "Radio",
    "value": "icon",
    "rules": {
      "icon": {
        ".product-info .button-group-page .btn-wishlist .btn-text": "display:none"
      },
      "text": {
        ".product-info .button-group-page .btn-wishlist::before": "display:none",
        ".product-info .button-group-page .btn-wishlist .btn-text": "display:inline-block; padding:0;"
      },
      "both": {
        ".product-info .button-group-page .btn-wishlist::before, .product-info .button-group-page .btn-wishlist .btn-text": "display:inline-block"
      }
    },
    "php": true
  },
  "WishlistWidth": {
    "type": "Radio",
    "value": "auto",
    "rules": {
      "full": {
        ".product-info .button-group-page .wishlist-compare .btn-wishlist": "width:100%"
      },
      "auto": {
        ".product-info .button-group-page .wishlist-compare .btn-wishlist": "width:auto"
      }
    }
  },
  "WishlistMargin": {
    "type": "Margin",
    "selector": ".product-info .button-group-page .btn-wishlist"
  },
  "WishlistIcon": {
    "type": "Icon",
    "selector": ".product-info .button-group-page .btn-wishlist::before"
  },
  "WishlistIconHover": {
    "type": "Color",
    "property": "color:%s",
    "selector": ".desktop .product-info .button-group-page .btn-wishlist:hover::before"
  },
  "WishlistButton": {
    "type": "Variable",
    "variable": "button",
    "selector_prefix": ".product-info .button-group-page .btn-wishlist&"
  },
  "WishlistTooltipStatus": {
    "type": "Toggle",
    "php": true
  },
  "WishlistTooltipPosition": {
    "type": "Radio",
    "value": "top",
    "php": true
  },
  "WishlistTooltip": {
    "include": "tooltip",
    "selector_prefix": ".pp-cart-tooltip"
  },
  "CompareVisibility": {
    "type": "Toggle",
    "value": "true",
    "rules": {
      "true": {
        ".product-info .button-group-page .btn-compare": "display:inline-flex"
      },
      "false": {
        ".product-info .button-group-page .btn-compare": "display:none"
      }
    }
  },
  "CompareDisplay": {
    "type": "Radio",
    "value": "icon",
    "rules": {
      "icon": {
        ".product-info .button-group-page .btn-compare .btn-text": "display:none"
      },
      "text": {
        ".product-info .button-group-page .btn-compare::before": "display:none",
        ".product-info .button-group-page .btn-compare .btn-text": "display:inline-block; padding:0;"
      },
      "both": {
        ".product-info .button-group-page .btn-compare::before, .product-info .button-group-page .btn-compare .btn-text": "display:inline-block"
      }
    },
    "php": true
  },
  "CompareWidth": {
    "type": "Radio",
    "value": "auto",
    "rules": {
      "full": {
        ".product-info .button-group-page .wishlist-compare .btn-compare": "width:100%"
      },
      "auto": {
        ".product-info .button-group-page .wishlist-compare .btn-compare": "width:auto"
      }
    }
  },
  "CompareMargin": {
    "type": "Margin",
    "selector": ".product-info .button-group-page .btn-compare"
  },
  "CompareIcon": {
    "type": "Icon",
    "selector": ".product-info .button-group-page .btn-compare::before"
  },
  "CompareIconHover": {
    "type": "Color",
    "property": "color:%s",
    "selector": ".desktop .product-info .button-group-page .btn-compare:hover::before"
  },
  "CompareButton": {
    "type": "Variable",
    "variable": "button",
    "selector_prefix": ".product-info .button-group-page .btn-compare&"
  },
  "CompareTooltipStatus": {
    "type": "Toggle",
    "php": true
  },
  "CompareTooltipPosition": {
    "type": "Radio",
    "value": "top",
    "php": true
  },
  "CompareTooltip": {
    "include": "tooltip",
    "selector_prefix": ".pp-cart-tooltip"
  }
}
